{
  "61": {
    "a1": 0.7177195353,
    "beta1": -0.1459834253,
    "a2": 0.6730822541,
    "beta2": -0.1045654787,
    "a3": 0.3664965981,
    "beta3": 0.07220770058,
    "a4": 0.6417079601,
    "beta4": -0.09690888034,
    "a5": 0.6417079601,
    "beta5": -0.09690888034,
    "a6": 0.6417079601,
    "beta6": -0.09690888034
  },
  "64": {
    "a1": 0.7324766271,
    "beta1": -0.08632434512,
    "a2": 0.7718386729,
    "beta2": -0.09857525353,
    "a3": 0.7515109828,
    "beta3": -0.0911280828,
    "a4": 0.6649323463,
    "beta4": -0.08000862344,
    "a5": 0.6334440458,
    "beta5": -0.04571711989,
    "a6": 0.7046031781,
    "beta6": -0.08461600397
  },
  "70": {
    "a1": 0.6440624053,
    "beta1": -0.06225148504,
    "a2": 0.6283182634,
    "beta2": -0.05795664195,
    "a3": 0.6415354564,
    "beta3": -0.06170337095,
    "a4": 0.6504769193,
    "beta4": -0.08519321069,
    "a5": 0.6389830699,
    "beta5": -0.08078946931,
    "a6": 0.6389830699,
    "beta6": -0.08078946931
  },
  "76": {
    "a1": 0.733187,
    "beta1": -0.102121,
    "a2": 0.757595,
    "beta2": -0.106211,
    "a3": 0.719093,
    "beta3": -0.099058,
    "a4": 0.709765,
    "beta4": -0.105767,
    "a5": 0.769525,
    "beta5": -0.114498,
    "a6": 0.682743,
    "beta6": -0.104658
  },
  "115": {
    "a1": 0.6818862175,
    "beta1": -0.1547757969,
    "a2": 0.7014869545,
    "beta2": -0.1654577639,
    "a3": 0.8852409281,
    "beta3": -0.1913947584,
    "a4": 0.4906618582,
    "beta4": -0.1130110538,
    "a5": 0.3771081253,
    "beta5": -0.08152559851,
    "a6": 0.2318272553,
    "beta6": -0.006751907206
  },
  "123": {
    "a1": 0.8470016554,
    "beta1": -0.08840239397,
    "a2": 0.8845620596,
    "beta2": -0.1045315468,
    "a3": 0.9611792552,
    "beta3": -0.1157338566,
    "a4": 0.7734750719,
    "beta4": -0.08632640593,
    "a5": 0.8283787394,
    "beta5": -0.09312717111,
    "a6": 0.8585070763,
    "beta6": -0.09270383635
  },
  "132": {
    "a1": 1.054007419,
    "beta1": -0.07237701309,
    "a2": 0.9174107666,
    "beta2": -0.03942024305,
    "a3": 1.227768793,
    "beta3": -0.1026123962,
    "a4": 1.054121843,
    "beta4": -0.0666341149,
    "a5": 1.172046457,
    "beta5": -0.08872857941,
    "a6": 1.465252037,
    "beta6": -0.1164307481
  },
  "137": {
    "a1": 0.7625964959,
    "beta1": -0.07851042723,
    "a2": 0.8203474842,
    "beta2": -0.08527489969,
    "a3": 0.7741931391,
    "beta3": -0.07872315313,
    "a4": 0.7603319435,
    "beta4": -0.0721887574,
    "a5": 0.9180155218,
    "beta5": -0.1246712071,
    "a6": 0.8278941684,
    "beta6": -0.09800049792
  },
  "148": {
    "a1": 0.5182744819,
    "beta1": -0.1007213572,
    "a2": 0.6715584078,
    "beta2": -0.1564165183,
    "a3": 0.4552212918,
    "beta3": -0.0942222183,
    "a4": 0.557534369,
    "beta4": -0.1141619046,
    "a5": 0.4922226528,
    "beta5": -0.1002629082,
    "a6": 0.5003905602,
    "beta6": -0.1006204946
  },
  "150": {
    "a1": 0.6599319786,
    "beta1": -0.1105710776,
    "a2": 0.6115557439,
    "beta2": -0.09948754807,
    "a3": 0.5702734504,
    "beta3": -0.05696281331,
    "a4": 0.6652647458,
    "beta4": -0.1258953416,
    "a5": 0.5666187834,
    "beta5": -0.1091231194,
    "a6": 0.6097530455,
    "beta6": -0.1156009451
  },
  "156": {
    "a1": 0.5149442262,
    "beta1": -0.07789614456,
    "a2": 0.6902444538,
    "beta2": -0.1220621424,
    "a3": 0.6135611267,
    "beta3": -0.1060403833,
    "a4": 0.6501826124,
    "beta4": -0.1080708162,
    "a5": 0.4152824279,
    "beta5": -0.04272288636,
    "a6": 0.5501266171,
    "beta6": -0.08260572159
  },
  "160": {
    "a1": 0.5798419014,
    "beta1": -0.08983907547,
    "a2": 0.6775372554,
    "beta2": -0.1250645328,
    "a3": 0.5584571895,
    "beta3": -0.08524731777,
    "a4": 0.5114960241,
    "beta4": -0.06807237551,
    "a5": 0.4702026411,
    "beta5": -0.05398761919,
    "a6": 0.5152797159,
    "beta6": -0.07205445138
  },
  "174": {
    "a1": 0.7888809739,
    "beta1": -0.08468180763,
    "a2": 0.8137588014,
    "beta2": -0.08992529863,
    "a3": 0.796970781,
    "beta3": -0.0868044606,
    "a4": 0.8476494585,
    "beta4": -0.1183784845,
    "a5": 0.7901540918,
    "beta5": -0.1063650162,
    "a6": 0.830979485,
    "beta6": -0.1139108157
  },
  "177": {
    "a1": 0.6547185922,
    "beta1": -0.07904581806,
    "a2": 0.6888431717,
    "beta2": -0.07994542967,
    "a3": 0.6700707732,
    "beta3": -0.08114141241,
    "a4": 0.5808546207,
    "beta4": -0.06491034452,
    "a5": 0.6261273194,
    "beta5": -0.08679944761,
    "a6": 0.6341837815,
    "beta6": -0.08234236344
  },
  "179": {
    "a1": 0.6694240757,
    "beta1": -0.05721605655,
    "a2": 0.6755087999,
    "beta2": -0.0622085084,
    "a3": 0.7926376937,
    "beta3": -0.08931984305,
    "a4": 0.7168219545,
    "beta4": -0.07532478517,
    "a5": 0.6217673789,
    "beta5": -0.05736382973,
    "a6": 0.6502977344,
    "beta6": -0.06085717299
  },
  "184": {
    "a1": 0.7338598374,
    "beta1": -0.07283898809,
    "a2": 0.7120110849,
    "beta2": -0.07117463807,
    "a3": 0.8120475835,
    "beta3": -0.104160838,
    "a4": 0.6836974931,
    "beta4": -0.08209196898,
    "a5": 0.586851908,
    "beta5": -0.04439553408,
    "a6": 0.6187081642,
    "beta6": -0.05535401745
  },
  "196": {
    "a1": 0.7514644806,
    "beta1": -0.05025663597,
    "a2": 0.7393305354,
    "beta2": -0.04439955301,
    "a3": 0.7808723858,
    "beta3": -0.05802152886,
    "a4": 0.7471198344,
    "beta4": -0.06596067442,
    "a5": 0.7475752521,
    "beta5": -0.06439454575,
    "a6": 0.7475752521,
    "beta6": -0.06439454575
  },
  "202": {
    "a1": 0.6197511005,
    "beta1": -0.09898460948,
    "a2": 0.7088107147,
    "beta2": -0.115477007,
    "a3": 0.7526401276,
    "beta3": -0.1276208413,
    "a4": 0.6838862489,
    "beta4": -0.1122647432,
    "a5": 0.7099031845,
    "beta5": -0.1184728349,
    "a6": 0.884630006,
    "beta6": -0.1451994136
  },
  "205": {
    "a1": 0.6741062752,
    "beta1": -0.06827708319,
    "a2": 0.6897132666,
    "beta2": -0.08157282147,
    "a3": 0.6259286104,
    "beta3": -0.04628882627,
    "a4": 0.6268728506,
    "beta4": -0.06336708257,
    "a5": 0.6268728506,
    "beta5": -0.06336708257,
    "a6": 0.6268728506,
    "beta6": -0.06336708257
  },
  "209": {
    "a1": 0.8730264607,
    "beta1": -0.07582716166,
    "a2": 0.8747328266,
    "beta2": -0.07502824377,
    "a3": 0.9111070683,
    "beta3": -0.08320401255,
    "a4": 0.8332201226,
    "beta4": -0.07597944482,
    "a5": 0.8876010222,
    "beta5": -0.08858279062,
    "a6": 0.8795047573,
    "beta6": -0.0887665735
  },
  "212": {
    "a1": 0.8200033142,
    "beta1": -0.07897747919,
    "a2": 0.8480566517,
    "beta2": -0.08024563137,
    "a3": 0.8157606715,
    "beta3": -0.07594485067,
    "a4": 0.8322212058,
    "beta4": -0.08892680296,
    "a5": 0.8188984944,
    "beta5": -0.08205765585,
    "a6": 0.8188984944,
    "beta6": -0.08205765585
  },
  "217": {
    "a1": 0.7924636608,
    "beta1": -0.09480269368,
    "a2": 0.7721670826,
    "beta2": -0.09062073627,
    "a3": 0.7760455885,
    "beta3": -0.09343271891,
    "a4": 0.7575568443,
    "beta4": -0.0934253686,
    "a5": 0.7243450483,
    "beta5": -0.0896910065,
    "a6": 0.6989438679,
    "beta6": -0.08556649733
  },
  "229": {
    "a1": 0.5988313739,
    "beta1": -0.1275398623,
    "a2": 0.4835249018,
    "beta2": -0.104268666,
    "a3": 0.6169148754,
    "beta3": -0.1380165437,
    "a4": 0.1969472671,
    "beta4": 0.01168102079,
    "a5": 0.6625032532,
    "beta5": -0.1409347149,
    "a6": 0.4981894362,
    "beta6": -0.1163597755
  },
  "241": {
    "a1": 0.8328376732,
    "beta1": -0.0731552324,
    "a2": 0.798322535,
    "beta2": -0.04445992287,
    "a3": 0.8808288605,
    "beta3": -0.08982742259,
    "a4": 0.8926017547,
    "beta4": -0.1234320691,
    "a5": 0.8926017547,
    "beta5": -0.1234320691,
    "a6": 1.007381661,
    "beta6": -0.1626958322
  },
  "242": {
    "a1": 0.6622347475,
    "beta1": -0.06627110818,
    "a2": 0.6525082603,
    "beta2": -0.06305263043,
    "a3": 0.5771051309,
    "beta3": -0.04362733361,
    "a4": 0.6633775885,
    "beta4": -0.07695530066,
    "a5": 0.6390133265,
    "beta5": -0.07960113088,
    "a6": 0.6402363662,
    "beta6": -0.07635490534
  },
  "248": {
    "a1": 0.6782317836,
    "beta1": -0.086582152,
    "a2": 0.701524414,
    "beta2": -0.0921338384,
    "a3": 0.7184679964,
    "beta3": -0.09256578875,
    "a4": 0.5623898788,
    "beta4": -0.07657574889,
    "a5": 0.6548152095,
    "beta5": -0.08958869089,
    "a6": 0.5053375721,
    "beta6": -0.06302435068
  },
  "249": {
    "a1": 0.75891122,
    "beta1": -0.1078538724,
    "a2": 0.7428392545,
    "beta2": -0.09499370625,
    "a3": 0.7703465867,
    "beta3": -0.1055690487,
    "a4": 0.7414173886,
    "beta4": -0.1090954518,
    "a5": 0.743058054,
    "beta5": -0.10903726,
    "a6": 0.8783585858,
    "beta6": -0.1299163929
  },
  "260": {
    "a1": 0.788928594,
    "beta1": -0.08184486903,
    "a2": 0.7652585799,
    "beta2": -0.07849665407,
    "a3": 0.7452486135,
    "beta3": -0.07504786192,
    "a4": 0.7412503287,
    "beta4": -0.08291786251,
    "a5": 0.8107320928,
    "beta5": -0.09490137476,
    "a6": 0.7225621405,
    "beta6": -0.07958807485
  },
  "265": {
    "a1": 0.7438525004,
    "beta1": -0.07597134672,
    "a2": 0.7168194127,
    "beta2": -0.06689150241,
    "a3": 0.6781308449,
    "beta3": -0.0480415814,
    "a4": 0.736772444,
    "beta4": -0.09192164243,
    "a5": 0.6762427405,
    "beta5": -0.06745976191,
    "a6": 0.70977752,
    "beta6": -0.08217932469
  },
  "306": {
    "a1": 0.5497392877,
    "beta1": -0.09521317742,
    "a2": 0.48356355,
    "beta2": -0.07782109397,
    "a3": 0.5955609934,
    "beta3": -0.1099657028,
    "a4": 0.4741160139,
    "beta4": -0.08120921583,
    "a5": 0.39659496,
    "beta5": -0.05801721693,
    "a6": 0.445124845,
    "beta6": -0.07351315088
  },
  "314": {
    "a1": 0.5566833058,
    "beta1": -0.08702589253,
    "a2": 0.6995138669,
    "beta2": -0.1216311487,
    "a3": 0.6401883722,
    "beta3": -0.1081228309,
    "a4": 0.5515272151,
    "beta4": -0.09241327413,
    "a5": 0.4642981044,
    "beta5": -0.07628365073,
    "a6": 0.4980064503,
    "beta6": -0.08315486574
  },
  "317": {
    "a1": 0.5529768092,
    "beta1": -0.1036213992,
    "a2": 0.6875405405,
    "beta2": -0.1465209549,
    "a3": 0.6446660741,
    "beta3": -0.1305182375,
    "a4": 0.6797527794,
    "beta4": -0.1530354187,
    "a5": 0.5552255079,
    "beta5": -0.1180142832,
    "a6": 0.4789759239,
    "beta6": -0.09601938743
  },
  "330": {
    "a1": 0.4638091993,
    "beta1": -0.08525173801,
    "a2": 0.4641589479,
    "beta2": -0.0891484115,
    "a3": 0.378074016,
    "beta3": -0.04110529224,
    "a4": 0.361368791,
    "beta4": -0.08287391552,
    "a5": 0.361368791,
    "beta5": -0.08287391552,
    "a6": 0.361368791,
    "beta6": -0.08287391552
  },
  "365": {
    "a1": 0.6901967556,
    "beta1": -0.1115537371,
    "a2": 0.6387328705,
    "beta2": -0.0936739434,
    "a3": 0.6657469636,
    "beta3": -0.1013478709,
    "a4": 0.7021891446,
    "beta4": -0.1295811472,
    "a5": 0.7409040534,
    "beta5": -0.1328023992,
    "a6": 0.6203864825,
    "beta6": -0.09752425997
  },
  "379": {
    "a1": 0.7997906229,
    "beta1": -0.1069648904,
    "a2": 0.7901913456,
    "beta2": -0.105391479,
    "a3": 0.8369689872,
    "beta3": -0.1139503494,
    "a4": 0.7334242784,
    "beta4": -0.1026232404,
    "a5": 0.8467127319,
    "beta5": -0.1290098663,
    "a6": 0.7716976736,
    "beta6": -0.1088896043
  },
  "438": {
    "a1": 0.5215356369,
    "beta1": -0.117121757,
    "a2": 0.4656118188,
    "beta2": -0.0940602569,
    "a3": 0.282069742,
    "beta3": -0.03236595533,
    "a4": 0.6668500354,
    "beta4": -0.1566983368,
    "a5": 0.3926953577,
    "beta5": -0.08789295485,
    "a6": 0.3539789544,
    "beta6": -0.06754596389
  },
  "440": {
    "a1": 0.7962097906,
    "beta1": -0.07353581111,
    "a2": 0.8004930908,
    "beta2": -0.07187793806,
    "a3": 0.8288185122,
    "beta3": -0.0792662978,
    "a4": 0.8815169796,
    "beta4": -0.1221880478,
    "a5": 0.7238755544,
    "beta5": -0.06053895106,
    "a6": 0.7465850203,
    "beta6": -0.07277264186
  },
  "449": {
    "a1": 0.72920592,
    "beta1": -0.112151338,
    "a2": 0.6606715657,
    "beta2": -0.08776534783,
    "a3": 0.776917541,
    "beta3": -0.1140414848,
    "a4": 0.6101501882,
    "beta4": -0.08824192532,
    "a5": 0.6317873795,
    "beta5": -0.08797166731,
    "a6": 0.5745190924,
    "beta6": -0.07015911446
  },
  "461": {
    "a1": 0.4093333783,
    "beta1": -0.05359532866,
    "a2": 0.6131616606,
    "beta2": -0.1372013207,
    "a3": 0.4807766717,
    "beta3": -0.08860493443,
    "a4": 0.5645134608,
    "beta4": -0.1187286872,
    "a5": 0.5937321958,
    "beta5": -0.1248521935,
    "a6": 0.5833747208,
    "beta6": -0.12276348
  },
  "463": {
    "a1": 0.5571270024,
    "beta1": -0.05475833688,
    "a2": 0.4388843502,
    "beta2": -0.01489800403,
    "a3": 0.4612795612,
    "beta3": -0.02485271346,
    "a4": 0.8764631115,
    "beta4": -0.1169310872,
    "a5": 0.8764631115,
    "beta5": -0.1169310872,
    "a6": 0.8764631115,
    "beta6": -0.1169310872
  },
  "464": {
    "a1": 0.6105855721,
    "beta1": -0.05635788759,
    "a2": 0.7134991377,
    "beta2": -0.08067585516,
    "a3": 0.5911299327,
    "beta3": -0.04970441134,
    "a4": 0.6059201607,
    "beta4": -0.0614638468,
    "a5": 0.5928641496,
    "beta5": -0.05721738299,
    "a6": 0.5792685544,
    "beta6": -0.0545383702
  },
  "468": {
    "a1": 0.901507095,
    "beta1": -0.1048617858,
    "a2": 0.9033315928,
    "beta2": -0.1022287233,
    "a3": 0.8947723762,
    "beta3": -0.1053461022,
    "a4": 0.7871501205,
    "beta4": -0.0923729073,
    "a5": 0.8385399928,
    "beta5": -0.09698963191,
    "a6": 0.8597475822,
    "beta6": -0.1050292825
  },
  "480": {
    "a1": 0.6810530991,
    "beta1": -0.1646275899,
    "a2": 0.4890801586,
    "beta2": -0.1208658364,
    "a3": 0.593076637,
    "beta3": -0.145544048,
    "a4": 0.5876023314,
    "beta4": -0.146269745,
    "a5": 0.5103935203,
    "beta5": -0.1329795035,
    "a6": 0.3194408598,
    "beta6": -0.08859847297
  },
  "481": {
    "a1": 0.3014205414,
    "beta1": -0.02077282826,
    "a2": 0.3531016784,
    "beta2": -0.0438999119,
    "a3": 0.3473030585,
    "beta3": -0.03982153683,
    "a4": 0.5009660594,
    "beta4": -0.08757009992,
    "a5": 0.4470811652,
    "beta5": -0.08029650363,
    "a6": 0.4868019936,
    "beta6": -0.08715279829
  },
  "484": {
    "a1": 0.745179227,
    "beta1": -0.1113568325,
    "a2": 0.7156416472,
    "beta2": -0.1110428634,
    "a3": 0.7228341163,
    "beta3": -0.1119908554,
    "a4": 0.7082476824,
    "beta4": -0.1156255665,
    "a5": 0.7128080998,
    "beta5": -0.116340462,
    "a6": 0.518770114,
    "beta6": -0.07358308661
  },
  "497": {
    "a1": 0.5812046711,
    "beta1": -0.07011262431,
    "a2": 0.6191485626,
    "beta2": -0.0747297814,
    "a3": 0.5988899989,
    "beta3": -0.07231024741,
    "a4": 0.7055331599,
    "beta4": -0.1000972985,
    "a5": 0.6284960426,
    "beta5": -0.08454365401,
    "a6": 0.665743656,
    "beta6": -0.09028338811
  },
  "504": {
    "a1": 1.290702336,
    "beta1": -0.1860026301,
    "a2": 1.054354541,
    "beta2": -0.1608359283,
    "a3": 0.8621466374,
    "beta3": -0.1121240362,
    "a4": 0.7250832563,
    "beta4": -0.09769461421,
    "a5": 0.8469189861,
    "beta5": -0.129335739,
    "a6": 0.7780925886,
    "beta6": -0.1096629443
  }
}